\boolfalse {citerequest}\boolfalse {citetracker}\boolfalse {pagetracker}\boolfalse {backtracker}\relax 
\babel@toc {ngerman}{}
\defcounter {refsection}{0}\relax 
\contentsline {chapter}{\numberline {1}Ablauf der Studie}{4}{chapter.1}% 
\defcounter {refsection}{0}\relax 
\contentsline {section}{\numberline {1.1}Vorbereitung}{4}{section.1.1}% 
\defcounter {refsection}{0}\relax 
\contentsline {subsection}{\numberline {1.1.1}Versionen der App}{4}{subsection.1.1.1}% 
\defcounter {refsection}{0}\relax 
\contentsline {subsection}{\numberline {1.1.2}Definition des kontrollierten Experiments}{4}{subsection.1.1.2}% 
\defcounter {refsection}{0}\relax 
\contentsline {section}{\numberline {1.2}Durchführung}{4}{section.1.2}% 
\defcounter {refsection}{0}\relax 
\contentsline {subsection}{\numberline {1.2.1}Vorfeedback}{4}{subsection.1.2.1}% 
\defcounter {refsection}{0}\relax 
\contentsline {subsection}{\numberline {1.2.2}Durchlauf der drei Versionen der App}{4}{subsection.1.2.2}% 
